id_05_00000000.wav,34.7106
id_05_00000001.wav,0.00052462163
id_05_00000002.wav,8.899864
id_05_00000003.wav,0.03250388
id_05_00000004.wav,3.7050743
id_05_00000005.wav,33.306843
id_05_00000006.wav,39.41926
id_05_00000007.wav,0.00051806855
id_05_00000008.wav,39.21695
id_05_00000009.wav,0.000371983
id_05_00000010.wav,0.0057484074
id_05_00000011.wav,0.00030262658
id_05_00000012.wav,0.0017657179
id_05_00000013.wav,0.00036316476
id_05_00000014.wav,0.0025662605
id_05_00000015.wav,0.28616613
id_05_00000016.wav,0.00020489977
id_05_00000017.wav,0.00016497205
id_05_00000018.wav,7.8913436e-05
id_05_00000019.wav,1.8651522
id_05_00000020.wav,0.10050181
id_05_00000021.wav,0.00030012394
id_05_00000022.wav,31.947243
id_05_00000023.wav,39.61194
id_05_00000024.wav,0.0010519454
id_05_00000025.wav,11.96959
id_05_00000026.wav,39.775627
id_05_00000027.wav,0.012785957
id_05_00000028.wav,0.0020612676
id_05_00000029.wav,0.00010311072
id_05_00000030.wav,0.0120685855
id_05_00000031.wav,0.026225898
id_05_00000032.wav,0.02450009
id_05_00000033.wav,0.0007422791
id_05_00000034.wav,0.01695237
id_05_00000035.wav,23.281876
id_05_00000036.wav,17.812845
id_05_00000037.wav,35.58803
id_05_00000038.wav,0.04563837
id_05_00000039.wav,0.013558677
id_05_00000040.wav,0.017796831
id_05_00000041.wav,28.538977
id_05_00000042.wav,0.0028980658
id_05_00000043.wav,0.014292845
id_05_00000044.wav,1.2206903
id_05_00000045.wav,0.0009547681
id_05_00000046.wav,0.0017708349
id_05_00000047.wav,28.489721
id_05_00000048.wav,29.080965
id_05_00000049.wav,18.936903
id_05_00000050.wav,37.297268
id_05_00000051.wav,0.768338
id_05_00000052.wav,28.34266
id_05_00000053.wav,0.011730501
id_05_00000054.wav,25.647621
id_05_00000055.wav,20.39587
id_05_00000056.wav,0.002619647
id_05_00000057.wav,0.05414833
id_05_00000058.wav,0.0005303407
id_05_00000059.wav,0.00034910307
id_05_00000060.wav,0.00246709
id_05_00000061.wav,3.5812924
id_05_00000062.wav,0.10551408
id_05_00000063.wav,32.191483
id_05_00000064.wav,0.041802004
id_05_00000065.wav,0.647717
id_05_00000066.wav,0.000233027
id_05_00000067.wav,0.053637322
id_05_00000068.wav,0.0054512187
id_05_00000069.wav,0.0028735795
id_05_00000070.wav,39.844925
id_05_00000071.wav,0.00020478059
id_05_00000072.wav,0.048489895
id_05_00000073.wav,12.671781
id_05_00000074.wav,0.041054703
id_05_00000075.wav,6.0372915
id_05_00000076.wav,31.31252
id_05_00000077.wav,0.0012374609
id_05_00000078.wav,0.0031481253
id_05_00000079.wav,37.46485
id_05_00000080.wav,32.952396
id_05_00000081.wav,2.346171
id_05_00000082.wav,0.014340321
id_05_00000083.wav,0.0029563077
id_05_00000084.wav,0.0050910832
id_05_00000085.wav,0.048636496
id_05_00000086.wav,0.0021473938
id_05_00000087.wav,0.00019810621
id_05_00000088.wav,6.749069
id_05_00000089.wav,0.011442982
id_05_00000090.wav,0.0057103597
id_05_00000091.wav,0.34679887
id_05_00000092.wav,0.0011779282
id_05_00000093.wav,0.03878432
id_05_00000094.wav,0.15860035
id_05_00000095.wav,0.000107044216
id_05_00000096.wav,0.0068319775
id_05_00000097.wav,0.00026163016
id_05_00000098.wav,0.1740948
id_05_00000099.wav,0.138016
id_05_00000100.wav,12.745793
id_05_00000101.wav,0.00433173
id_05_00000102.wav,1.4957184
id_05_00000103.wav,0.0026272563
id_05_00000104.wav,16.921309
id_05_00000105.wav,0.4562903
id_05_00000106.wav,0.0007220284
id_05_00000107.wav,0.017137421
id_05_00000108.wav,0.00020871368
id_05_00000109.wav,2.333881
id_05_00000110.wav,0.01096297
id_05_00000111.wav,0.008849213
id_05_00000112.wav,1.4716723
id_05_00000113.wav,0.023902472
id_05_00000114.wav,10.1579075
id_05_00000115.wav,37.135357
id_05_00000116.wav,0.00022873646
id_05_00000117.wav,0.0040712813
id_05_00000118.wav,0.0009865661
id_05_00000119.wav,0.007986398
id_05_00000120.wav,0.0030221525
id_05_00000121.wav,0.28503376
id_05_00000122.wav,0.0029237403
id_05_00000123.wav,0.00436532
id_05_00000124.wav,2.8594234
id_05_00000125.wav,0.017915804
id_05_00000126.wav,0.00033861626
id_05_00000127.wav,0.0019791792
id_05_00000128.wav,0.3777423
id_05_00000129.wav,0.029722067
id_05_00000130.wav,0.00031013446
id_05_00000131.wav,0.0014978154
id_05_00000132.wav,0.004129336
id_05_00000133.wav,36.55559
id_05_00000134.wav,0.0078037865
id_05_00000135.wav,0.008341236
id_05_00000136.wav,0.023533786
id_05_00000137.wav,0.01302732
id_05_00000138.wav,0.0031968462
id_05_00000139.wav,0.008062437
id_05_00000140.wav,0.005039964
id_05_00000141.wav,0.00022396917
id_05_00000142.wav,0.04711695
id_05_00000143.wav,0.0026127507
id_05_00000144.wav,0.011510392
id_05_00000145.wav,0.001328301
id_05_00000146.wav,25.974798
id_05_00000147.wav,0.008011705
id_05_00000148.wav,33.564095
id_05_00000149.wav,0.00044645832
id_05_00000150.wav,0.14255105
id_05_00000151.wav,0.029127792
id_05_00000152.wav,0.0013266343
id_05_00000153.wav,0.3008339
id_05_00000154.wav,0.19219577
id_05_00000155.wav,6.0947967
id_05_00000156.wav,0.00023970116
id_05_00000157.wav,0.0028950942
id_05_00000158.wav,29.295887
id_05_00000159.wav,0.0014354412
id_05_00000160.wav,1.318404
id_05_00000161.wav,0.0003251501
id_05_00000162.wav,0.53571564
id_05_00000163.wav,0.00061576476
id_05_00000164.wav,0.0037522165
id_05_00000165.wav,24.438066
id_05_00000166.wav,0.0059306836
id_05_00000167.wav,37.589638
id_05_00000168.wav,0.15926613
id_05_00000169.wav,0.0027188025
id_05_00000170.wav,0.00019202773
id_05_00000171.wav,0.0037656366
id_05_00000172.wav,0.00012516193
id_05_00000173.wav,0.00057466206
id_05_00000174.wav,0.09430921
id_05_00000175.wav,29.730288
id_05_00000176.wav,0.00094750326
id_05_00000177.wav,0.16747448
id_05_00000178.wav,0.0032605364
id_05_00000179.wav,0.010121567
id_05_00000180.wav,0.48075634
id_05_00000181.wav,0.00016020445
id_05_00000182.wav,0.00111994
id_05_00000183.wav,0.03369061
id_05_00000184.wav,0.004410065
id_05_00000185.wav,0.0048769806
id_05_00000186.wav,0.24739979
id_05_00000187.wav,9.149716
id_05_00000188.wav,0.04486179
id_05_00000189.wav,0.0014751992
id_05_00000190.wav,0.00034779223
id_05_00000191.wav,10.651773
id_05_00000192.wav,0.0005698964
id_05_00000193.wav,0.00049149833
id_05_00000194.wav,0.007202138
id_05_00000195.wav,0.07063106
id_05_00000196.wav,0.062716365
id_05_00000197.wav,0.00019631843
id_05_00000198.wav,11.660536
id_05_00000199.wav,0.00058478897
id_05_00000200.wav,0.024004893
id_05_00000201.wav,0.123476446
id_05_00000202.wav,0.002291674
id_05_00000203.wav,0.0009319015
id_05_00000204.wav,0.034379512
id_05_00000205.wav,0.01499594
id_05_00000206.wav,36.151295
id_05_00000207.wav,0.0015291199
id_05_00000208.wav,0.00036387975
id_05_00000209.wav,0.0053289747
id_05_00000210.wav,37.08539
id_05_00000211.wav,0.00016604476
id_05_00000212.wav,6.0110655
id_05_00000213.wav,0.008860793
id_05_00000214.wav,7.3642917
id_05_00000215.wav,13.879122
id_05_00000216.wav,0.0003065593
id_05_00000217.wav,0.74293405
id_05_00000218.wav,0.00477353
id_05_00000219.wav,0.0009835887
id_05_00000220.wav,0.026151111
id_05_00000221.wav,0.0015993435
id_05_00000222.wav,29.45625
id_05_00000223.wav,0.023121864
id_05_00000224.wav,0.0032253647
id_05_00000225.wav,0.00334549
id_05_00000226.wav,0.0018678139
id_05_00000227.wav,0.29797935
id_05_00000228.wav,0.000787544
id_05_00000229.wav,2.839982
id_05_00000230.wav,2.138726
id_05_00000231.wav,0.00033933128
id_05_00000232.wav,0.0054731523
id_05_00000233.wav,0.0017263285
id_05_00000234.wav,0.002690745
id_05_00000235.wav,28.418125
id_05_00000236.wav,23.767714
id_05_00000237.wav,0.0018283094
id_05_00000238.wav,0.4074927
id_05_00000239.wav,41.431778
id_05_00000240.wav,0.005247747
id_05_00000241.wav,37.285275
id_05_00000242.wav,0.00020013237
id_05_00000243.wav,4.4702483e-05
id_05_00000244.wav,1.6229738
id_05_00000245.wav,0.0108592035
id_05_00000246.wav,0.0040564407
id_05_00000247.wav,0.0014505589
id_05_00000248.wav,2.3596969
id_05_00000249.wav,0.008963348
id_05_00000250.wav,0.00032646095
id_05_00000251.wav,2.7672198
id_05_00000252.wav,0.1558867
id_05_00000253.wav,0.0065785744
id_05_00000254.wav,0.020751625
id_05_00000255.wav,0.004889318
id_05_00000256.wav,0.0034941116
id_05_00000257.wav,0.009379842
id_05_00000258.wav,0.00904203
id_05_00000259.wav,35.10936
id_05_00000260.wav,0.0004303721
id_05_00000261.wav,2.303818
id_05_00000262.wav,36.278637
id_05_00000263.wav,0.32670555
id_05_00000264.wav,0.00018332708
id_05_00000265.wav,0.00424413
id_05_00000266.wav,0.3684986
id_05_00000267.wav,0.011463488
id_05_00000268.wav,0.0015603045
id_05_00000269.wav,0.0022584903
id_05_00000270.wav,0.003099164
id_05_00000271.wav,26.69858
id_05_00000272.wav,34.8118
id_05_00000273.wav,0.0035956749
id_05_00000274.wav,0.0004973367
id_05_00000275.wav,23.292948
id_05_00000276.wav,0.0012577012
id_05_00000277.wav,0.28675595
id_05_00000278.wav,0.22318208
id_05_00000279.wav,3.8706095
id_05_00000280.wav,32.91328
id_05_00000281.wav,0.017611785
id_05_00000282.wav,0.6403346
id_05_00000283.wav,0.017014721
id_05_00000284.wav,0.00078885426
id_05_00000285.wav,31.23395
id_05_00000286.wav,5.2890453
id_05_00000287.wav,0.0035790454
id_05_00000288.wav,0.001749891
id_05_00000289.wav,0.0016972912
id_05_00000290.wav,0.004071519
id_05_00000291.wav,0.0010810014
id_05_00000292.wav,11.584792
id_05_00000293.wav,37.681248
id_05_00000294.wav,0.00032252833
id_05_00000295.wav,36.780582
id_05_00000296.wav,0.00015269544
id_05_00000297.wav,0.6628159
id_05_00000298.wav,0.0069906176
id_05_00000299.wav,0.006364908
id_05_00000300.wav,0.033532113
id_05_00000301.wav,10.0185375
id_05_00000302.wav,0.00047159992
id_05_00000303.wav,0.0015019814
id_05_00000304.wav,0.00039617319
id_05_00000305.wav,0.07805963
id_05_00000306.wav,34.212315
id_05_00000307.wav,30.411722
id_05_00000308.wav,0.0021251494
id_05_00000309.wav,0.00039271748
id_05_00000310.wav,0.0004426453
id_05_00000311.wav,0.8317054
id_05_00000312.wav,0.044780403
id_05_00000313.wav,0.020067755
id_05_00000314.wav,1.4144379
id_05_00000315.wav,0.0009522671
id_05_00000316.wav,0.00059860904
id_05_00000317.wav,3.2712874
id_05_00000318.wav,0.001012885
id_05_00000319.wav,0.00030179237
id_05_00000320.wav,31.787266
id_05_00000321.wav,24.185513
id_05_00000322.wav,0.0012554391
id_05_00000323.wav,0.0011469699
id_05_00000324.wav,0.052156027
id_05_00000325.wav,32.953712
id_05_00000326.wav,33.6342
id_05_00000327.wav,27.072453
id_05_00000328.wav,1.2409697
id_05_00000329.wav,0.0008827127
id_05_00000330.wav,7.92866
id_05_00000331.wav,33.333397
id_05_00000332.wav,0.0016340964
id_05_00000333.wav,0.0032097984
id_05_00000334.wav,11.098068
id_05_00000335.wav,39.169495
id_05_00000336.wav,0.00551109
id_05_00000337.wav,0.0018186711
id_05_00000338.wav,0.0035510121
id_05_00000339.wav,0.00021503044
id_05_00000340.wav,17.470457
id_05_00000341.wav,0.031178938
id_05_00000342.wav,2.4662676
id_05_00000343.wav,30.809612
id_05_00000344.wav,0.0039117024
id_05_00000345.wav,0.0030707608
id_05_00000346.wav,0.00013183679
id_05_00000347.wav,8.605525
id_05_00000348.wav,1.1726933
id_05_00000349.wav,0.00019357714
id_05_00000350.wav,0.0017335877
id_05_00000351.wav,40.74762
id_05_00000352.wav,15.470043
id_05_00000353.wav,0.002770873
id_05_00000354.wav,8.737659e-05
id_05_00000355.wav,0.0040450427
id_05_00000356.wav,0.003126497
id_05_00000357.wav,0.21889278
id_05_00000358.wav,0.000656985
id_05_00000359.wav,0.00030143486
id_05_00000360.wav,35.192406
id_05_00000361.wav,0.00751762
id_05_00000362.wav,0.008400108
id_05_00000363.wav,0.033357453
id_05_00000364.wav,4.653786
id_05_00000365.wav,2.5916407
id_05_00000366.wav,0.05214437
id_05_00000367.wav,29.822193
id_05_00000368.wav,0.020054085
id_05_00000369.wav,0.49171054
id_05_00000370.wav,0.037519924
id_05_00000371.wav,0.00016234987
id_05_00000372.wav,0.00056477333
id_05_00000373.wav,3.09082
id_05_00000374.wav,0.005803639
id_05_00000375.wav,0.00023970116
id_05_00000376.wav,35.92186
id_05_00000377.wav,4.8054724
id_05_00000378.wav,0.0045499844
id_05_00000379.wav,0.0038770286
id_05_00000380.wav,0.0045560366
id_05_00000381.wav,0.0023248568
id_05_00000382.wav,35.365383
id_05_00000383.wav,0.0054925955
id_05_00000384.wav,0.0082382625
id_05_00000385.wav,0.1845071
id_05_00000386.wav,18.11374
id_05_00000387.wav,2.0070744
id_05_00000388.wav,0.010086872
id_05_00000389.wav,24.881617
id_05_00000390.wav,0.0007094012
id_05_00000391.wav,0.010104219
id_05_00000392.wav,18.549658
id_05_00000393.wav,0.020873517
id_05_00000394.wav,0.089608125
id_05_00000395.wav,0.00050234096
id_05_00000396.wav,19.034225
id_05_00000397.wav,0.0009267803
id_05_00000398.wav,0.055235215
id_05_00000399.wav,0.003147412
id_05_00000400.wav,12.001572
id_05_00000401.wav,25.576658
id_05_00000402.wav,0.012143961
id_05_00000403.wav,36.219177
id_05_00000404.wav,0.00036078144
id_05_00000405.wav,0.5011163
id_05_00000406.wav,0.0007432321
id_05_00000407.wav,30.985847
id_05_00000408.wav,0.001391396
id_05_00000409.wav,33.83817
id_05_00000410.wav,0.0012869894
id_05_00000411.wav,0.00024875885
id_05_00000412.wav,1.2293484
id_05_00000413.wav,41.28966
id_05_00000414.wav,0.0012450808
id_05_00000415.wav,2.0856686
id_05_00000416.wav,1.9902871
id_05_00000417.wav,0.0016997904
id_05_00000418.wav,0.016779477
id_05_00000419.wav,0.0008122006
id_05_00000420.wav,0.0005386809
id_05_00000421.wav,0.14735433
id_05_00000422.wav,0.0010966008
id_05_00000423.wav,0.9582758
id_05_00000424.wav,0.43264288
id_05_00000425.wav,34.682083
id_05_00000426.wav,0.0033957458
id_05_00000427.wav,0.009950793
id_05_00000428.wav,0.112348884
id_05_00000429.wav,0.0038703787
id_05_00000430.wav,0.0005866952
id_05_00000431.wav,0.0009857324
id_05_00000432.wav,0.62204576
id_05_00000433.wav,5.0810866
id_05_00000434.wav,0.0014468688
id_05_00000435.wav,0.0055420324
id_05_00000436.wav,0.34408456
id_05_00000437.wav,0.00095357717
id_05_00000438.wav,0.17787676
id_05_00000439.wav,0.097474
id_05_00000440.wav,0.0016471879
id_05_00000441.wav,0.051039506
id_05_00000442.wav,0.18126674
id_05_00000443.wav,0.0008909309
id_05_00000444.wav,0.0011897159
id_05_00000445.wav,0.06748243
id_05_00000446.wav,7.4857407
id_05_00000447.wav,0.0012278169
id_05_00000448.wav,0.25054464
id_05_00000449.wav,2.3681934
id_05_00000450.wav,0.011829583
id_05_00000451.wav,0.0034463555
id_05_00000452.wav,0.0009950215
id_05_00000453.wav,0.0013529443
id_05_00000454.wav,0.00020740266
id_05_00000455.wav,7.2432923
id_05_00000456.wav,0.0036127793
id_05_00000457.wav,0.00043990472
id_05_00000458.wav,5.7968836
id_05_00000459.wav,1.1229769
id_05_00000460.wav,0.0013038953
id_05_00000461.wav,0.3979447
id_05_00000462.wav,2.0638068
id_05_00000463.wav,15.895369
id_05_00000464.wav,0.0021971152
id_05_00000465.wav,0.0013025856
id_05_00000466.wav,0.001757626
id_05_00000467.wav,0.0003323003
id_05_00000468.wav,0.0008923601
id_05_00000469.wav,0.30849144
id_05_00000470.wav,0.0005034133
id_05_00000471.wav,0.0019876263
id_05_00000472.wav,0.013755645
id_05_00000473.wav,34.234425
id_05_00000474.wav,0.005308461
id_05_00000475.wav,0.00453966
id_05_00000476.wav,37.94289
id_05_00000477.wav,0.40057424
id_05_00000478.wav,0.0043022935
id_05_00000479.wav,2.9833064
id_05_00000480.wav,0.0013333011
id_05_00000481.wav,0.002217217
id_05_00000482.wav,0.005654412
id_05_00000483.wav,0.027086236
id_05_00000484.wav,4.398726e-05
id_05_00000485.wav,0.001113867
id_05_00000486.wav,15.48602
id_05_00000487.wav,0.00064864574
id_05_00000488.wav,0.0238473
id_05_00000489.wav,27.832806
id_05_00000490.wav,0.04363998
id_05_00000491.wav,0.011599832
id_05_00000492.wav,0.016848521
id_05_00000493.wav,0.0028467153
id_05_00000494.wav,7.125144
id_05_00000495.wav,0.0033132916
id_05_00000496.wav,34.160957
id_05_00000497.wav,0.003561584
id_05_00000498.wav,7.718263
id_05_00000499.wav,0.007444734
id_05_00000500.wav,2.024241
id_05_00000501.wav,31.186214
id_05_00000502.wav,0.0004785108
id_05_00000503.wav,0.00013183679
id_05_00000504.wav,26.9747
id_05_00000505.wav,0.007753515
id_05_00000506.wav,30.223032
id_05_00000507.wav,0.0035086044
id_05_00000508.wav,0.022527616
id_05_00000509.wav,0.028710177
id_05_00000510.wav,1.3038743
id_05_00000511.wav,0.105053775
id_05_00000512.wav,3.1886406
id_05_00000513.wav,0.0002503082
id_05_00000514.wav,23.30693
